mips.vcd
$date
	Mon May 11 21:05:25 2015
$end

$version
	Synopsys VCS version I-2014.03-2
$end

$timescale
	100ps
$end

$comment Csum: 1 3d98d620914c080b $end


$scope module tb_mips $end
$var reg 1 ! clock $end
$var reg 1 " reset $end
$var reg 32 # Inst [31:0] $end
$var reg 32 $ Dout [31:0] $end
$var wire 32 % PC [31:0] $end
$var wire 1 & MemRead $end
$var wire 1 ' MemWrite $end
$var wire 32 ( Addr [31:0] $end
$var wire 32 ) Din [31:0] $end
$var wire 32 * mem_addr [31:0] $end

$scope module P $end
$var wire 1 ! clock $end
$var wire 1 " reset $end
$var wire 32 # Inst [31:0] $end
$var wire 32 $ Dout [31:0] $end
$var wire 1 & MemRead $end
$var wire 1 ' MemWrite $end
$var wire 32 % PC [31:0] $end
$var wire 32 ( Addr [31:0] $end
$var wire 32 ) Din [31:0] $end
$var wire 32 + x_gpr_rd_data2_I [31:0] $end
$var wire 32 , x_gpr_rd_data2_I_shamt [31:0] $end
$var wire 32 - x_STORE_write_data [31:0] $end
$var wire 32 . fwd_data_ALU_src1 [31:0] $end
$var wire 32 / fwd_data_ALU_src2 [31:0] $end
$var reg 5 0 gpr_wr_addr [4:0] $end
$var wire 5 1 gpr_rd_addr1 [4:0] $end
$var wire 5 2 gpr_rd_addr2 [4:0] $end
$var wire 32 3 gpr_wr_data [31:0] $end
$var wire 32 4 gpr_rd_data1 [31:0] $end
$var wire 32 5 gpr_rd_data2 [31:0] $end
$var wire 32 6 fwd_gpr_rd_data1 [31:0] $end
$var wire 32 7 fwd_gpr_rd_data2 [31:0] $end
$var wire 32 8 fwd_data_DECODE_src1 [31:0] $end
$var wire 32 9 fwd_data_DECODE_src2 [31:0] $end
$var wire 32 : mem_alu_data_out [31:0] $end
$var wire 32 % pc [31:0] $end
$var wire 32 ; Inst_stall [31:0] $end
$var wire 32 < Inst_stall_b_j [31:0] $end
$var wire 16 = fd_Inst_15_0 [15:0] $end
$var wire 26 > fd_Inst_25_0 [25:0] $end
$var wire 5 ? fd_rs [4:0] $end
$var wire 5 2 fd_rt [4:0] $end
$var wire 1 @ d_fwd_rs [1] $end
$var wire 1 A d_fwd_rs [0] $end
$var wire 1 B d_fwd_rt [1] $end
$var wire 1 C d_fwd_rt [0] $end
$var wire 1 D d_stall $end
$var wire 6 E fd_opcode [5:0] $end
$var wire 6 F fd_funct [5:0] $end
$var reg 32 G fd_Inst [31:0] $end
$var wire 32 H d_Inst_15_0_signext [31:0] $end
$var wire 32 I d_br_signext_sl2 [31:0] $end
$var wire 1 J d_PCSrc1 $end
$var wire 1 K d_PCSrc2 $end
$var wire 1 L d_PCSrc3 $end
$var wire 1 M d_isSLL_SRL $end
$var wire 32 N d_pc_plus_8 [31:0] $end
$var reg 32 O dx_pc_plus_8 [31:0] $end
$var reg 32 P dx_Inst [31:0] $end
$var reg 32 Q dx_Inst_15_0_signext [31:0] $end
$var reg 32 R dx_gpr_rd_data2 [31:0] $end
$var reg 32 S dx_shamt [31:0] $end
$var reg 5 T dx_gpr_rd_addr1 [4:0] $end
$var reg 5 U dx_gpr_rd_addr2 [4:0] $end
$var reg 1 V dx_stall $end
$var reg 32 W dx_gpr_rd_data1 [31:0] $end
$var wire 6 X dx_opcode [5:0] $end
$var wire 6 Y dx_funct [5:0] $end
$var wire 5 Z dx_rs [4:0] $end
$var wire 5 [ dx_rt [4:0] $end
$var wire 5 \ dx_rd [4:0] $end
$var wire 32 ] ALU_datain1 [31:0] $end
$var wire 32 ^ ALU_datain2 [31:0] $end
$var wire 1 _ x_fwd_alu_src1 [1] $end
$var wire 1 ` x_fwd_alu_src1 [0] $end
$var wire 1 a x_fwd_alu_src2 [1] $end
$var wire 1 b x_fwd_alu_src2 [0] $end
$var wire 1 c dx_isSLL_SRL $end
$var wire 1 d dx_isJAL $end
$var wire 1 e dx_RegDest $end
$var wire 3 f x_ALU_Control [2:0] $end
$var wire 32 g x_ALU_Result [31:0] $end
$var wire 5 h x_gpr_wr_addr0 [4:0] $end
$var wire 5 i x_gpr_wr_addr [4:0] $end
$var reg 5 j xm_gpr_wr_addr [4:0] $end
$var reg 32 k xm_ALU_Result [31:0] $end
$var reg 32 l xm_STORE_write_data [31:0] $end
$var reg 1 m xm_stall $end
$var reg 32 n xm_Inst [31:0] $end
$var reg 32 o xm_pc_plus_8 [31:0] $end
$var wire 6 p xm_opcode [5:0] $end
$var wire 5 q xm_rt [4:0] $end
$var wire 1 & m_MemRead $end
$var wire 1 ' m_MemWrite $end
$var wire 1 r xm_RegDest $end
$var reg 32 s mw_Inst [31:0] $end
$var reg 32 t mw_pc_plus_8 [31:0] $end
$var reg 32 u mw_Dout [31:0] $end
$var reg 32 v mw_ALU_Result [31:0] $end
$var reg 1 w mw_stall $end
$var wire 6 x mw_opcode [5:0] $end
$var wire 6 y xm_funct [5:0] $end
$var wire 5 z mw_rs [4:0] $end
$var wire 5 { mw_rt [4:0] $end
$var wire 5 | mw_rd [4:0] $end
$var wire 1 } mw_RegWrite $end
$var wire 1 ~ mw_RegDest $end
$var wire 1 "! w_MemtoReg $end
$var wire 1 "" mw_is_JAL $end

$scope module signext_u0 $end
$var wire 16 = ip [15:0] $end
$var wire 32 H op [31:0] $end
$var reg 32 "# ext [31:0] $end
$upscope $end


$scope module lshift_u0 $end
$var wire 32 H ip [31:0] $end
$var wire 32 I op [31:0] $end
$var reg 32 "$ shift [31:0] $end
$upscope $end


$scope module mux_2x1_FWD_D1 $end
$var wire 32 : ip1 [31:0] $end
$var wire 32 "% ip0 [31:0] $end
$var wire 1 A sel $end
$var reg 32 "& out [31:0] $end
$upscope $end


$scope module mux_2x1_FWD_D2 $end
$var wire 32 8 ip1 [31:0] $end
$var wire 32 4 ip0 [31:0] $end
$var wire 1 @ sel $end
$var reg 32 "' out [31:0] $end
$upscope $end


$scope module mux_2x1_FWD_D3 $end
$var wire 32 : ip1 [31:0] $end
$var wire 32 "% ip0 [31:0] $end
$var wire 1 C sel $end
$var reg 32 "( out [31:0] $end
$upscope $end


$scope module mux_2x1_FWD_D4 $end
$var wire 32 9 ip1 [31:0] $end
$var wire 32 5 ip0 [31:0] $end
$var wire 1 B sel $end
$var reg 32 ") out [31:0] $end
$upscope $end


$scope module pc_u0 $end
$var wire 1 ! clk $end
$var wire 1 " rst $end
$var wire 32 I fd_br_signext_sl2 [31:0] $end
$var wire 26 > fd_Inst_25_0 [25:0] $end
$var wire 32 6 fwd_gpr_rd_data1 [31:0] $end
$var wire 1 D d_stall $end
$var wire 1 J jump $end
$var wire 1 K branch $end
$var wire 1 L jump_reg $end
$var wire 32 % pc [31:0] $end
$var wire 32 N d_pc_plus_8 [31:0] $end
$var reg 32 "* pc_val [31:0] $end
$var wire 32 "+ br_loc [31:0] $end
$var wire 32 % d_pc_plus_4 [31:0] $end
$var wire 32 N pc_plus_4 [31:0] $end
$upscope $end


$scope module control_unit_u0 $end
$var wire 1 ! clock $end
$var wire 1 " reset $end
$var wire 6 x mw_opcode [5:0] $end
$var wire 5 z mw_rs [4:0] $end
$var wire 5 { mw_rt [4:0] $end
$var wire 5 | mw_rd [4:0] $end
$var wire 6 p xm_opcode [5:0] $end
$var wire 6 y xm_funct [5:0] $end
$var wire 1 m xm_stall $end
$var wire 6 X dx_opcode [5:0] $end
$var wire 6 Y dx_funct [5:0] $end
$var wire 6 E fd_opcode [5:0] $end
$var wire 6 F fd_funct [5:0] $end
$var wire 32 6 fwd_gpr_rd_data1 [31:0] $end
$var wire 32 7 fwd_gpr_rd_data2 [31:0] $end
$var reg 1 ", mw_RegWrite $end
$var reg 1 ~ mw_RegDest $end
$var wire 1 "! w_MemtoReg $end
$var wire 1 & m_MemRead $end
$var wire 1 ' m_MemWrite $end
$var reg 1 r xm_RegDest $end
$var reg 1 "- dx_RegDest $end
$var reg 1 ". dx_isJAL $end
$var reg 1 "/ dx_isSLL_SRL $end
$var wire 3 f x_ALU_Control [2:0] $end
$var wire 1 J d_PCSrc1 $end
$var wire 1 K d_PCSrc2 $end
$var wire 1 L d_PCSrc3 $end
$var wire 1 M d_isSLL_SRL $end
$var reg 3 "0 x_alu_ctrl [2:0] $end
$var wire 1 K d_bcond $end
$var wire 1 "1 d_bcond_beq $end
$var wire 1 "2 d_bcond_bne $end
$var reg 1 "3 xm_isJAL $end
$var wire 1 "4 m_opcode_store $end
$var wire 1 "5 m_opcode_load $end
$var wire 1 "6 m_RegWrite $end
$upscope $end


$scope module mux_2x1_u2 $end
$var wire 5 \ ip1 [4:0] $end
$var wire 5 [ ip0 [4:0] $end
$var wire 1 e sel $end
$var reg 5 "7 out [4:0] $end
$upscope $end


$scope module mux_2x1_u3 $end
$var wire 5 "8 ip1 [4:0] $end
$var wire 5 h ip0 [4:0] $end
$var wire 1 d sel $end
$var reg 5 "9 out [4:0] $end
$upscope $end


$scope module mux_2x1_u4 $end
$var wire 32 ": ip1 [31:0] $end
$var wire 32 "; ip0 [31:0] $end
$var wire 1 "! sel $end
$var reg 32 "< out [31:0] $end
$upscope $end


$scope module mux_2x1_u5 $end
$var wire 32 "= ip1 [31:0] $end
$var wire 32 : ip0 [31:0] $end
$var wire 1 "" sel $end
$var reg 32 "> out [31:0] $end
$upscope $end


$scope module mux_2x1_u6 $end
$var wire 5 2 ip1 [4:0] $end
$var wire 5 ? ip0 [4:0] $end
$var wire 1 M sel $end
$var reg 5 "? out [4:0] $end
$upscope $end


$scope module gpr_u0 $end
$var wire 1 ! clk $end
$var wire 1 } RegWrite $end
$var wire 5 1 rd_addr1 [4:0] $end
$var wire 5 2 rd_addr2 [4:0] $end
$var wire 5 0 wr_addr [4:0] $end
$var wire 32 3 wr_data [31:0] $end
$var wire 32 4 rd_data1 [31:0] $end
$var wire 32 5 rd_data2 [31:0] $end
$upscope $end


$scope module mux_2x1_u7 $end
$var wire 32 "@ ip1 [31:0] $end
$var wire 32 "A ip0 [31:0] $end
$var wire 1 e sel $end
$var reg 32 "B out [31:0] $end
$upscope $end


$scope module mux_2x1_u8 $end
$var wire 32 "C ip1 [31:0] $end
$var wire 32 + ip0 [31:0] $end
$var wire 1 c sel $end
$var reg 32 "D out [31:0] $end
$upscope $end


$scope module mux_2x1_u9 $end
$var wire 32 : ip1 [31:0] $end
$var wire 32 "% ip0 [31:0] $end
$var wire 1 ` sel $end
$var reg 32 "E out [31:0] $end
$upscope $end


$scope module mux_2x1_u10 $end
$var wire 32 : ip1 [31:0] $end
$var wire 32 "% ip0 [31:0] $end
$var wire 1 b sel $end
$var reg 32 "F out [31:0] $end
$upscope $end


$scope module mux_2x1_u11 $end
$var wire 32 . ip1 [31:0] $end
$var wire 32 "G ip0 [31:0] $end
$var wire 1 _ sel $end
$var reg 32 "H out [31:0] $end
$upscope $end


$scope module mux_2x1_u12 $end
$var wire 32 / ip1 [31:0] $end
$var wire 32 , ip0 [31:0] $end
$var wire 1 a sel $end
$var reg 32 "I out [31:0] $end
$upscope $end


$scope module mux_2x1_u13 $end
$var wire 32 / ip1 [31:0] $end
$var wire 32 "@ ip0 [31:0] $end
$var wire 1 a sel $end
$var reg 32 "J out [31:0] $end
$upscope $end


$scope module alu_u0 $end
$var wire 32 ] r1 [31:0] $end
$var wire 32 ^ r2 [31:0] $end
$var wire 3 f control [2:0] $end
$var wire 32 g result [31:0] $end
$var integer 32 "K in1 $end
$var integer 32 "L in2 $end
$var integer 32 "M out $end
$upscope $end


$scope module forward_stall_u0 $end
$var wire 5 0 gpr_wr_addr [4:0] $end
$var wire 5 j xm_gpr_wr_addr [4:0] $end
$var wire 6 x mw_opcode [5:0] $end
$var wire 6 p xm_opcode [5:0] $end
$var wire 5 q xm_rt [4:0] $end
$var wire 5 T dx_gpr_rd_addr1 [4:0] $end
$var wire 5 [ dx_rt [4:0] $end
$var wire 1 c dx_isSLL_SRL $end
$var wire 6 X dx_opcode [5:0] $end
$var wire 6 E fd_opcode [5:0] $end
$var wire 6 F fd_funct [5:0] $end
$var wire 5 ? fd_rs [4:0] $end
$var wire 5 2 fd_rt [4:0] $end
$var wire 5 1 gpr_rd_addr1 [4:0] $end
$var wire 1 M d_isSLL_SRL $end
$var reg 2 "N d_fwd_rs [1:0] $end
$var reg 2 "O d_fwd_rt [1:0] $end
$var wire 1 D d_stall $end
$var reg 2 "P x_fwd_alu_src1 [1:0] $end
$var reg 2 "Q x_fwd_alu_src2 [1:0] $end
$var wire 1 "R fd_opcode_R $end
$var wire 1 "S fd_Inst_JR $end
$var wire 1 J fd_opcode_J_JAL $end
$var wire 1 "T fd_opcode_branch $end
$var wire 1 "U dx_opcode_R $end
$var wire 1 "V dx_opcode_load $end
$var wire 1 "5 xm_opcode_load $end
$var wire 1 "W xm_opcode_load_store $end
$var wire 1 "X mw_opcode_store $end
$upscope $end

$upscope $end

$upscope $end

$enddefinitions $end

#0
$dumpvars
0!
x"-
x".
x"/
x~
x",
xr
xL
xK
x"1
x"2
xM
xD
xd
x"U
x"V
xV
x"S
xJ
x"R
x"T
x&
x'
x"6
x"5
x"4
x}
x"X
xw
x"
x"3
x"W
xm
bxxxxxxxxxxxxxxxxxxxxxxxxxxxxxxxx ]
bxxxxxxxxxxxxxxxxxxxxxxxxxxxxxxxx ^
bxxxxxxxxxxxxxxxxxxxxxxxxxxxxxxxx (
bxxxxxxxxxxxxxxxxxxxxxxxxxxxxxxxx )
bxxxxxxxxxxxxxxxxxxxxxxxxxxxxxxxx $
bxxxxxxxxxxxxxxxxxxxxxxxxxxxxxxxx #
bxxxxxxxxxxxxxxxxxxxxxxxxxxxxxxxx ;
bxxxxxxxxxxxxxxxxxxxxxxxxxxxxxxxx <
bxxxxxxxxxxxxxxxxxxxxxxxxxxxxxxxx "M
bxxxxxxxxxxxxxxxxxxxxxxxxxxxxxxxx "+
bxxxxxxxxxxxxxxxxxxxxxxxxxxxxxxxx H
bxxxxxxxxxxxxxxxxxxxxxxxxxxxxxxxx I
bxx "N
bxx "O
bxxxxxxxxxxxxxxxxxxxxxxxxxxxxxxxx P
bxxxxxxxxxxxxxxxxxxxxxxxxxxxxxxxx Q
bxxxxxx Y
bxxxxx T
bxxxxx U
bxxxxxxxxxxxxxxxxxxxxxxxxxxxxxxxx W
bxxxxxxxxxxxxxxxxxxxxxxxxxxxxxxxx R
bxxxxxx X
bxxxxxxxxxxxxxxxxxxxxxxxxxxxxxxxx O
bxxxxx \
bxxxxx [
bxxxxxxxxxxxxxxxxxxxxxxxxxxxxxxxx S
bxxxxxxxxxxxxxxxxxxxxxxxxxxxxxxxx "#
bxxxxxxxxxxxxxxxxxxxxxxxxxxxxxxxx G
bxxxxxxxxxxxxxxxx =
bxxxxxxxxxxxxxxxxxxxxxxxxxx >
bxxxxxx F
bxxxxxx E
bxxxxx ?
bxxxxx 2
bxxxxxxxxxxxxxxxxxxxxxxxxxxxxxxxx 6
bxxxxxxxxxxxxxxxxxxxxxxxxxxxxxxxx 7
bxxxxx 1
bxxxxx 0
bxxxxxxxxxxxxxxxxxxxxxxxxxxxxxxxx 3
bxxxxxxxxxxxxxxxxxxxxxxxxxxxxxxxx "K
bxxxxxxxxxxxxxxxxxxxxxxxxxxxxxxxx "L
b11111 "8
b00xxxxxxxxxxxxxxxxxxxxxxxxxxxxxx *
bxxxxx "9
bxxxxx "?
bxxxxxxxxxxxxxxxxxxxxxxxxxxxxxxxx v
bxxxxxxxxxxxxxxxxxxxxxxxxxxxxxxxx u
bxxxxxxxxxxxxxxxxxxxxxxxxxxxxxxxx s
bxxxxxx x
bxxxxxxxxxxxxxxxxxxxxxxxxxxxxxxxx t
bxxxxx "7
bxxxxxxxxxxxxxxxxxxxxxxxxxxxxxxxx %
bxxxxxxxxxxxxxxxxxxxxxxxxxxxxxxxx N
bxxxxxxxxxxxxxxxxxxxxxxxxxxxxxxxx "*
bxxxxxxxxxxxxxxxxxxxxxxxxxxxxxxxx "$
bxxxxx z
bxxxxx {
bxxxxx |
bxxxxx Z
bxxx f
bxxxxxxxxxxxxxxxxxxxxxxxxxxxxxxxx g
bxxxxxxxxxxxxxxxxxxxxxxxxxxxxxxxx -
bxxx "0
bxx "P
bxx "Q
bxxxxx i
bxxxxx h
bxxxxxxxxxxxxxxxxxxxxxxxxxxxxxxxx k
bxxxxxxxxxxxxxxxxxxxxxxxxxxxxxxxx n
bxxxxxxxxxxxxxxxxxxxxxxxxxxxxxxxx l
bxxxxxx y
bxxxxx j
bxxxxxx p
bxxxxxxxxxxxxxxxxxxxxxxxxxxxxxxxx o
bxxxxx q
bxxxxxxxxxxxxxxxxxxxxxxxxxxxxxxxx "&
bxxxxxxxxxxxxxxxxxxxxxxxxxxxxxxxx "'
bxxxxxxxxxxxxxxxxxxxxxxxxxxxxxxxx "(
bxxxxxxxxxxxxxxxxxxxxxxxxxxxxxxxx ")
bxxxxxxxxxxxxxxxxxxxxxxxxxxxxxxxx "<
bxxxxxxxxxxxxxxxxxxxxxxxxxxxxxxxx ">
bxxxxxxxxxxxxxxxxxxxxxxxxxxxxxxxx "B
bxxxxxxxxxxxxxxxxxxxxxxxxxxxxxxxx "D
bxxxxxxxxxxxxxxxxxxxxxxxxxxxxxxxx "E
bxxxxxxxxxxxxxxxxxxxxxxxxxxxxxxxx "F
bxxxxxxxxxxxxxxxxxxxxxxxxxxxxxxxx "H
bxxxxxxxxxxxxxxxxxxxxxxxxxxxxxxxx "I
bxxxxxxxxxxxxxxxxxxxxxxxxxxxxxxxx "J
bxxxxxxxxxxxxxxxxxxxxxxxxxxxxxxxx :
xA
bxxxxxxxxxxxxxxxxxxxxxxxxxxxxxxxx 8
bxxxxxxxxxxxxxxxxxxxxxxxxxxxxxxxx 4
x@
xC
bxxxxxxxxxxxxxxxxxxxxxxxxxxxxxxxx 9
bxxxxxxxxxxxxxxxxxxxxxxxxxxxxxxxx 5
xB
x"!
z""
xe
bxxxxxxxxxxxxxxxxxxxxxxxxxxxxxxxx +
xc
bxxxxxxxxxxxxxxxxxxxxxxxxxxxxxxxx ,
x`
bxxxxxxxxxxxxxxxxxxxxxxxxxxxxxxxx .
xb
bxxxxxxxxxxxxxxxxxxxxxxxxxxxxxxxx /
x_
xa
bxxxxxxxxxxxxxxxxxxxxxxxxxxxxxxxx "%
bxxxxxxxxxxxxxxxxxxxxxxxxxxxxxxxx ":
bxxxxxxxxxxxxxxxxxxxxxxxxxxxxxxxx ";
bxxxxxxxxxxxxxxxxxxxxxxxxxxxxxxxx "=
bxxxxxxxxxxxxxxxxxxxxxxxxxxxxxxxx "@
bxxxxxxxxxxxxxxxxxxxxxxxxxxxxxxxx "A
bxxxxxxxxxxxxxxxxxxxxxxxxxxxxxxxx "C
bxxxxxxxxxxxxxxxxxxxxxxxxxxxxxxxx "G
$end
#50
1!
1"
b00000000000000000000000000000000 #
#60
b00000000000000000000000000000000 G
0"S
0"T
0J
0L
1"R
b0000000000000000 =
b00000000000000000000000000 >
b000000 E
b000000 F
b00000 ?
b00000 2
b00000000000000000000000000000000 P
b00000 Z
0"V
1"U
b000000 X
b000000 Y
b00000 [
b00000 \
b00000000000000000000000000000000 O
b00000000000000000000000000000000 Q
b00000000000000000000000000000000 "A
b00000000000000000000000000000000 R
b00000000000000000000000000000000 "@
b00000000000000000000000000000000 S
b00000000000000000000000000000000 "C
b00000000000000000000000000000000 W
b00000000000000000000000000000000 "G
b00000 T
b00000 U
0V
b00000000000000000000000000000000 n
0'
0&
0"4
0"5
0"W
b000000 y
b000000 p
b00000 q
b00000000000000000000000000000000 o
b00000000000000000000000000000000 k
b00000000000000000000000000000000 "%
b00000000000000000000000000000000 (
b00000000000000000000000000000000 *
b00000000000000000000000000000000 l
b00000000000000000000000000000000 )
0m
b00000000000000000000000000000000 s
b00000 z
b00000 {
b00000 |
0"X
0"!
b000000 x
b00000000000000000000000000000000 t
b00000000000000000000000000000000 "=
b00000000000000000000000000000000 u
b00000000000000000000000000000000 ":
b00000000000000000000000000000000 v
b00000000000000000000000000000000 ";
0w
b00000 j
b00000 0
b00000000000000000000000000000000 "*
b00000000000000000000000000000000 %
b00000000000000000000000000000100 N
0"/
0c
0"-
0e
0".
0d
0r
0"3
0~
0",
0}
b00 "O
0C
0B
1M
b00000000000000000000000000000000 5
0"1
0K
0"2
b00000000000000000000000000000000 "#
b00000000000000000000000000000000 H
b00000 "?
b00000 1
b00000000000000000000000000000000 ;
0D
b00 "Q
0b
0a
b011 "0
b011 f
b00000 "7
b00000 h
b00000000000000000000000000000000 "B
b00000000000000000000000000000000 +
b00000000000000000000000000000000 "J
b00000000000000000000000000000000 -
b00000000000000000000000000000000 "D
b00000000000000000000000000000000 ,
b00000000000000000000000000000000 "H
b00000000000000000000000000000000 ]
b00 "P
0`
0_
b00 "N
0A
0@
b00000000000000000000000000000000 "&
b00000000000000000000000000000000 8
b00000000000000000000000000000000 "(
b00000000000000000000000000000000 9
b00000000000000000000000000000000 "E
b00000000000000000000000000000000 .
b00000000000000000000000000000000 "F
b00000000000000000000000000000000 /
1"6
b00000000000000000000000000000000 "<
b00000000000000000000000000000000 :
b00000000000000000000000000000000 ">
b00000000000000000000000000000000 3
b00000 "9
b00000 i
b00000000000000000000000000000000 ")
b00000000000000000000000000000000 7
b00000000000000000000000000000000 <
b00000000000000000000000000000000 "$
b00000000000000000000000000000000 I
b00000000000000000000000000000000 "+
b00000000000000000000000000000000 4
b00000000000000000000000000000000 "I
b00000000000000000000000000000000 ^
b00000000000000000000000000000000 "K
b00000000000000000000000000000000 "L
b00000000000000000000000000000000 "'
b00000000000000000000000000000000 6
b00000000000000000000000000000000 "M
b00000000000000000000000000000000 g
#100
0!
#150
0"
1!
#160
b00000000000000000000000000000100 O
bxxxxxxxxxxxxxxxxxxxxxxxxxxxxxxxx u
bxxxxxxxxxxxxxxxxxxxxxxxxxxxxxxxx ":
b00000000000000000000000000000100 "*
b00000000000000000000000000000100 %
b00000000000000000000000000000100 "+
b00000000000000000000000000001000 N
1"/
1c
1"-
1e
1",
1}
b00100000000000110000000000000111 #
b00100000000000110000000000000111 ;
b00100000000000110000000000000111 <
#200
0!
#250
1!
#260
b00100000000000110000000000000111 G
0"R
b0000000000000111 =
b00000000110000000000000111 >
b001000 E
b000111 F
b00011 2
b00000000000000000000000000001000 O
b00000000000000000000000000000100 o
b00000000000000000000000000001000 "*
b00000000000000000000000000001000 %
b00000000000000000000000000001000 "+
b00000000000000000000000000001100 N
1r
0M
bxxxxxxxxxxxxxxxxxxxxxxxxxxxxxxxx 5
b00000000000000000000000000000111 "#
b00000000000000000000000000000111 H
b00000000011000000010000000100100 #
bxxxxxxxxxxxxxxxxxxxxxxxxxxxxxxxx ")
bxxxxxxxxxxxxxxxxxxxxxxxxxxxxxxxx 7
b00000000000000000000000000011100 "$
b00000000000000000000000000011100 I
b00000000000000000000000000100100 "+
b00000000011000000010000000100100 ;
b00000000011000000010000000100100 <
#300
0!
#350
1!
#360
b00000000011000000010000000100100 G
1"R
b0010000000100100 =
b00011000000010000000100100 >
b000000 E
b100100 F
b00011 ?
b00000 2
b00100000000000110000000000000111 P
0"U
b001000 X
b000111 Y
b00011 [
b00000000000000000000000000001100 O
b00000000000000000000000000000111 Q
b00000000000000000000000000000111 "A
bxxxxxxxxxxxxxxxxxxxxxxxxxxxxxxxx R
bxxxxxxxxxxxxxxxxxxxxxxxxxxxxxxxx "@
b00011 U
b00000000000000000000000000001000 o
b00000000000000000000000000000100 t
b00000000000000000000000000000100 "=
b00000000000000000000000000001100 "*
b00000000000000000000000000001100 %
b00000000000000000000000000101000 "+
b00000000000000000000000000010000 N
0"/
0c
0"-
0e
1~
b00000000000000000000000000000000 5
b00000000000000000010000000100100 "#
b00000000000000000010000000100100 H
b00011 "?
b00011 1
b000 "0
b000 f
b00011 "7
b00011 h
b00000000000000000000000000000111 "B
b00000000000000000000000000000111 +
bxxxxxxxxxxxxxxxxxxxxxxxxxxxxxxxx "J
bxxxxxxxxxxxxxxxxxxxxxxxxxxxxxxxx -
b00000000000000110010100010000000 #
b00000000000000000000000000000111 "D
b00000000000000000000000000000111 ,
b00000000000000000000000000000000 ")
b00000000000000000000000000000000 7
b00000000000000001000000010010000 "$
b00000000000000001000000010010000 I
b00000000000000001000000010011100 "+
bxxxxxxxxxxxxxxxxxxxxxxxxxxxxxxxx 4
b00011 "9
b00011 i
b00000000000000110010100010000000 ;
b00000000000000000000000000000111 "I
b00000000000000000000000000000111 ^
bxxxxxxxxxxxxxxxxxxxxxxxxxxxxxxxx "'
bxxxxxxxxxxxxxxxxxxxxxxxxxxxxxxxx 6
b00000000000000110010100010000000 <
b00000000000000000000000000000111 "L
b00000000000000000000000000000111 "M
b00000000000000000000000000000111 g
#400
0!
#450
1!
#460
b00000000000000110010100010000000 G
b0010100010000000 =
b00000000110010100010000000 >
b000000 F
b00000 ?
b00011 2
b00000000011000000010000000100100 P
b00011 Z
1"U
b000000 X
b100100 Y
b00000 [
b00100 \
b00000000000000000000000000010000 O
b00000000000000000010000000100100 Q
b00000000000000000010000000100100 "A
b00000000000000000000000000000000 R
b00000000000000000000000000000000 "@
bxxxxxxxxxxxxxxxxxxxxxxxxxxxxxxxx W
bxxxxxxxxxxxxxxxxxxxxxxxxxxxxxxxx "G
b00011 T
b00000 U
b00100000000000110000000000000111 n
b000111 y
b001000 p
b00011 q
b00000000000000000000000000001100 o
b00000000000000000000000000000111 k
b00000000000000000000000000000111 "%
b00000000000000000000000000000111 (
b00000000000000000000000000000001 *
bxxxxxxxxxxxxxxxxxxxxxxxxxxxxxxxx l
bxxxxxxxxxxxxxxxxxxxxxxxxxxxxxxxx )
b00000000000000000000000000001000 t
b00000000000000000000000000001000 "=
b00011 j
b00000000000000000000000000010000 "*
b00000000000000000000000000010000 %
b00000000000000001000000010100000 "+
b00000000000000000000000000010100 N
1"-
1e
0r
1M
bxxxxxxxxxxxxxxxxxxxxxxxxxxxxxxxx 5
b00000000000000000010100010000000 "#
b00000000000000000010100010000000 H
b001 "0
b001 f
b00100 "7
b00100 h
b00000000000000000000000000000000 "B
b00000000000000000000000000000000 +
b00000000000000000000000000000000 "J
b00000000000000000000000000000000 -
bxxxxxxxxxxxxxxxxxxxxxxxxxxxxxxxx "H
bxxxxxxxxxxxxxxxxxxxxxxxxxxxxxxxx ]
b10 "P
1_
b00000000000000000000000000000111 "&
b00000000000000000000000000000111 8
b00000000000000000000000000000111 "(
b00000000000000000000000000000111 9
b00000000000000000000000000000111 "E
b00000000000000000000000000000111 .
b00000000000000000000000000000111 "F
b00000000000000000000000000000111 /
b10 "N
1@
b00100000000001100000000000000100 #
bxxxxxxxxxxxxxxxxxxxxxxxxxxxxxxxx ")
bxxxxxxxxxxxxxxxxxxxxxxxxxxxxxxxx 7
b00000000000000001010001000000000 "$
b00000000000000001010001000000000 I
b00000000000000001010001000010000 "+
b00000000000000000000000000000000 "M
b00000000000000000000000000000000 g
b00100 "9
b00100 i
b00000000000000000000000000000000 "D
b00000000000000000000000000000000 ,
bxxxxxxxxxxxxxxxxxxxxxxxxxxxxxxxx "K
b00000000000000000000000000000111 "H
b00000000000000000000000000000111 ]
b00000000000000000000000000000111 "'
b00000000000000000000000000000111 6
b00000000000000000000000000000000 "I
b00000000000000000000000000000000 ^
b00100000000001100000000000000100 ;
b00000000000000000000000000000xxx "M
b00000000000000000000000000000xxx g
b00000000000000000000000000000111 "K
b00000000000000000000000000000000 "L
b00100000000001100000000000000100 <
b00000000000000000000000000000000 "M
b00000000000000000000000000000000 g
#500
0!
#550
1!
